
 
记录时间：2015-03-30 17:50:06,693 
线程ID:[1] 
日志级别：  INFO  
类：RollingLogFile property: [(null)] - 
描述：
开始取消注册SMS
结果:0 成功

 

 
记录时间：2015-03-30 17:50:08,194 
线程ID:[11] 
日志级别：  INFO  
类：RollingLogFile property: [(null)] - 
描述：
执行前2015033017500813258
/

 

 
记录时间：2015-03-30 17:50:08,870 
线程ID:[8] 
日志级别：  INFO  
类：RollingLogFile property: [(null)] - 
描述：
执行前2015033017500839841
/Home/WebLogin/

 

 
记录时间：2015-03-30 17:51:23,042 
线程ID:[1] 
日志级别：  INFO  
类：RollingLogFile property: [(null)] - 
描述：
开始取消注册SMS
结果:0 成功

 

 
记录时间：2015-03-30 17:51:23,330 
线程ID:[8] 
日志级别：  INFO  
类：RollingLogFile property: [(null)] - 
描述：
执行前2015033017512386504
/

 

 
记录时间：2015-03-30 17:51:23,452 
线程ID:[7] 
日志级别：  INFO  
类：RollingLogFile property: [(null)] - 
描述：
执行前2015033017512388507
/Home/WebLogin/

 

 
记录时间：2015-03-30 17:51:31,005 
线程ID:[7] 
日志级别：  INFO  
类：RollingLogFile property: [(null)] - 
描述：
执行前2015033017513014203
/Home/WebLogin/
Account:tht

 

 
记录时间：2015-03-30 17:51:37,344 
线程ID:[10] 
日志级别：  INFO  
类：RollingLogFile property: [(null)] - 
描述：
执行前2015033017513746077
/Home/WebLogin/
Account:tht
Password:123

 

 
记录时间：2015-03-30 17:51:37,716 
线程ID:[7] 
日志级别：  INFO  
类：RollingLogFile property: [(null)] - 
描述：
执行前2015033017513777950
/

 

 
记录时间：2015-03-30 17:52:00,834 
线程ID:[10] 
日志级别：  INFO  
类：RollingLogFile property: [(null)] - 
描述：
执行前2015033017520097606
/Customer/CheckCustomer?phoneNumber=13800138000&userName=%E5%BC%A0%E4%B8%89&userSex=1&defaultAdd=1&_=1427709120807
phoneNumber:13800138000
userName:张三
userSex:1
defaultAdd:1
_:1427709120807

 

 
记录时间：2015-03-30 17:52:01,565 
线程ID:[10] 
日志级别：  INFO  
类：RollingLogFile property: [(null)] - 
描述：
执行后2015033017520097606
/Customer/CheckCustomer?phoneNumber=13800138000&userName=%E5%BC%A0%E4%B8%89&userSex=1&defaultAdd=1&_=1427709120807
{"ResultData":"{\"Success\":1,\"PK\":\"3798810\",\"PKOverDate\":\"2015-03-31 17:52:00\",\"UserState\":1,\"Register\":0,\"UserID\":\"aad2be44-d25d-4904-9dbf-dbec1a0d91e7\"}","ErrorMessage":null,"Success":true,"ErrorCode":0}

 

 
记录时间：2015-03-30 17:52:04,851 
线程ID:[10] 
日志级别：  INFO  
类：RollingLogFile property: [(null)] - 
描述：
执行前2015033017520474365
/Customer/RequestBaiduApi?q=ji&limit=10&timestamp=1427709124829
q:ji
limit:10
timestamp:1427709124829

 

 
记录时间：2015-03-30 17:52:05,451 
线程ID:[10] 
日志级别：  INFO  
类：RollingLogFile property: [(null)] - 
描述：
执行后2015033017520474365
/Customer/RequestBaiduApi?q=ji&limit=10&timestamp=1427709124829
[{"name":"江苏省","city":"","district":"","business":"","cityid":"0"},{"name":"江西省","city":"","district":"","business":"","cityid":"0"},{"name":"济宁市","city":"山东省","district":"","business":"","cityid":"286"},{"name":"济宁汽车总站","city":"济宁市","district":"市中区","business":"","cityid":"286"},{"name":"济宁汽车北站","city":"济宁市","district":"市中区","business":"","cityid":"286"},{"name":"济宁医学院附属医院","city":"济宁市","district":"市中区","business":"","cityid":"286"},{"name":"济宁太白路万达广场","city":"济宁市","district":"市中区","business":"","cityid":"286"},{"name":"济宁市第一人民医院","city":"济宁市","district":"市中区","business":"","cityid":"286"},{"name":"景点","city":"","district":"","business":"","cityid":"0"},{"name":"金宇汽车汽配城","city":"济宁市","district":"任城区","business":"","cityid":"286"}]

 

 
记录时间：2015-03-30 17:52:10,360 
线程ID:[10] 
日志级别：  INFO  
类：RollingLogFile property: [(null)] - 
描述：
执行前2015033017521041469
/Customer/RequestBaiduApi?q=%E6%99%8B%E5%9F%8E+&limit=10&timestamp=1427709130348
q:晋城 
limit:10
timestamp:1427709130348

 

 
记录时间：2015-03-30 17:52:10,733 
线程ID:[10] 
日志级别：  INFO  
类：RollingLogFile property: [(null)] - 
描述：
执行后2015033017521041469
/Customer/RequestBaiduApi?q=%E6%99%8B%E5%9F%8E+&limit=10&timestamp=1427709130348
[{"name":"晋城市","city":"山西省","district":"","business":"","cityid":"290"},{"name":"晋城镇","city":"昆明市","district":"晋宁县","business":"","cityid":"104"},{"name":"晋城站","city":"晋城市","district":"市辖区","business":"","cityid":"290"},{"name":"晋城二中","city":"晋城市","district":"市辖区","business":"","cityid":"290"},{"name":"晋城三中","city":"晋城市","district":"市辖区","business":"","cityid":"290"},{"name":"晋城四中-公交车站","city":"晋城市","district":"市辖区","business":"","cityid":"290"},{"name":"晋城客运中心站","city":"晋城市","district":"市辖区","business":"","cityid":"290"},{"name":"晋城市人民医院","city":"晋城市","district":"市辖区","business":"","cityid":"290"},{"name":"晋城市交通局汽车客运东站","city":"晋城市","district":"泽州县","business":"","cityid":"290"},{"name":"晋城二中-公交车站","city":"晋城市","district":"市辖区","business":"","cityid":"290"}]

 

 
记录时间：2015-03-30 17:52:16,968 
线程ID:[10] 
日志级别：  INFO  
类：RollingLogFile property: [(null)] - 
描述：
执行前2015033017521643051
/Customer/RequestBaiduApi?q=%E6%99%8B%E5%9F%8E+&limit=10&timestamp=1427709136956
q:晋城 
limit:10
timestamp:1427709136956

 

 
记录时间：2015-03-30 17:52:17,289 
线程ID:[10] 
日志级别：  INFO  
类：RollingLogFile property: [(null)] - 
描述：
执行后2015033017521643051
/Customer/RequestBaiduApi?q=%E6%99%8B%E5%9F%8E+&limit=10&timestamp=1427709136956
[{"name":"晋城市","city":"山西省","district":"","business":"","cityid":"290"},{"name":"晋城镇","city":"昆明市","district":"晋宁县","business":"","cityid":"104"},{"name":"晋城站","city":"晋城市","district":"市辖区","business":"","cityid":"290"},{"name":"晋城二中","city":"晋城市","district":"市辖区","business":"","cityid":"290"},{"name":"晋城三中","city":"晋城市","district":"市辖区","business":"","cityid":"290"},{"name":"晋城四中-公交车站","city":"晋城市","district":"市辖区","business":"","cityid":"290"},{"name":"晋城客运中心站","city":"晋城市","district":"市辖区","business":"","cityid":"290"},{"name":"晋城市人民医院","city":"晋城市","district":"市辖区","business":"","cityid":"290"},{"name":"晋城市交通局汽车客运东站","city":"晋城市","district":"泽州县","business":"","cityid":"290"},{"name":"晋城二中-公交车站","city":"晋城市","district":"市辖区","business":"","cityid":"290"}]

 

 
记录时间：2015-03-30 17:52:32,193 
线程ID:[10] 
日志级别：  INFO  
类：RollingLogFile property: [(null)] - 
描述：
执行前2015033017523225941
/Customer/ServerAddOrder?phoneNumber=13800138000&startAddress=%25E6%2599%258B%25E5%259F%258E%25E4%25BA%258C%25E4%25B8%25AD&startCity=%25E6%2599%258B%25E5%259F%258E%25E5%25B8%2582&endAddress=%25E6%2599%258B%25E5%259F%258E%25E4%25B8%2589%25E4%25B8%25AD&endCity=%25E6%2599%258B%25E5%259F%258E%25E5%25B8%2582&goodsName=%E8%B4%A7%E7%89%A9&sendDate=2015-03-30&isMianyi=1&defaultComplete=0&goodsDriverId=&goodsMemo=&goodsPrice=&_=1427709152181
phoneNumber:13800138000
startAddress:%E6%99%8B%E5%9F%8E%E4%BA%8C%E4%B8%AD
startCity:%E6%99%8B%E5%9F%8E%E5%B8%82
endAddress:%E6%99%8B%E5%9F%8E%E4%B8%89%E4%B8%AD
endCity:%E6%99%8B%E5%9F%8E%E5%B8%82
goodsName:货物
sendDate:2015-03-30
isMianyi:1
defaultComplete:0
_:1427709152181

 

 
记录时间：2015-03-30 17:52:44,917 
线程ID:[10] 
日志级别：  INFO  
类：RollingLogFile property: [(null)] - 
描述：
执行后2015033017523225941
/Customer/ServerAddOrder?phoneNumber=13800138000&startAddress=%25E6%2599%258B%25E5%259F%258E%25E4%25BA%258C%25E4%25B8%25AD&startCity=%25E6%2599%258B%25E5%259F%258E%25E5%25B8%2582&endAddress=%25E6%2599%258B%25E5%259F%258E%25E4%25B8%2589%25E4%25B8%25AD&endCity=%25E6%2599%258B%25E5%259F%258E%25E5%25B8%2582&goodsName=%E8%B4%A7%E7%89%A9&sendDate=2015-03-30&isMianyi=1&defaultComplete=0&goodsDriverId=&goodsMemo=&goodsPrice=&_=1427709152181
{"ResultData":null,"ErrorMessage":null,"Success":true,"ErrorCode":0}

 

 
记录时间：2015-03-30 17:53:34,492 
线程ID:[13] 
日志级别：  INFO  
类：RollingLogFile property: [(null)] - 
描述：
执行前2015033017533477618
/Customer/ServerAddOrder?phoneNumber=13800138000&startAddress=%25E6%2599%258B%25E5%259F%258E%25E4%25BA%258C%25E4%25B8%25AD&startCity=%25E6%2599%258B%25E5%259F%258E%25E5%25B8%2582&endAddress=%25E6%2599%258B%25E5%259F%258E%25E4%25B8%2589%25E4%25B8%25AD&endCity=%25E6%2599%258B%25E5%259F%258E%25E5%25B8%2582&goodsName=%E8%B4%A7%E7%89%A9&sendDate=2015-03-30&isMianyi=1&defaultComplete=0&goodsDriverId=&goodsMemo=&goodsPrice=&_=1427709214471
phoneNumber:13800138000
startAddress:%E6%99%8B%E5%9F%8E%E4%BA%8C%E4%B8%AD
startCity:%E6%99%8B%E5%9F%8E%E5%B8%82
endAddress:%E6%99%8B%E5%9F%8E%E4%B8%89%E4%B8%AD
endCity:%E6%99%8B%E5%9F%8E%E5%B8%82
goodsName:货物
sendDate:2015-03-30
isMianyi:1
defaultComplete:0
_:1427709214471

 

 
记录时间：2015-03-30 17:53:46,287 
线程ID:[13] 
日志级别：  INFO  
类：RollingLogFile property: [(null)] - 
描述：
执行后2015033017533477618
/Customer/ServerAddOrder?phoneNumber=13800138000&startAddress=%25E6%2599%258B%25E5%259F%258E%25E4%25BA%258C%25E4%25B8%25AD&startCity=%25E6%2599%258B%25E5%259F%258E%25E5%25B8%2582&endAddress=%25E6%2599%258B%25E5%259F%258E%25E4%25B8%2589%25E4%25B8%25AD&endCity=%25E6%2599%258B%25E5%259F%258E%25E5%25B8%2582&goodsName=%E8%B4%A7%E7%89%A9&sendDate=2015-03-30&isMianyi=1&defaultComplete=0&goodsDriverId=&goodsMemo=&goodsPrice=&_=1427709214471
{"ResultData":null,"ErrorMessage":null,"Success":true,"ErrorCode":0}

 
